<svg width="1019" height="1024" xmlns="http://www.w3.org/2000/svg" preserveAspectRatio="xMidYMid meet">
 <metadata>Created by potrace 1.15, written by Peter Selinger 2001-2017</metadata>

 <g>
  <title>background</title>
  <rect fill="none" id="canvas_background" height="402" width="582" y="-1" x="-1"/>
 </g>
 <g>
  <title>Layer 1</title>
  <g id="svg_1" fill="#000000" transform="translate(0,1024) scale(0.10000000149011612,-0.10000000149011612) ">
   <path fill="#48dbfb" id="svg_2" d="m4745,10233c-538,-43 -973,-137 -1430,-308c-1015,-380 -1889,-1081 -2487,-1995c-443,-678 -705,-1406 -805,-2245c-26,-216 -26,-884 0,-1100c127,-1059 508,-1948 1184,-2760c129,-155 413,-443 572,-578c511,-436 1091,-763 1727,-976c695,-232 1499,-307 2242,-211c1118,146 2139,648 2937,1445c840,838 1338,1872 1482,3080c26,216 26,884 0,1100c-76,637 -238,1186 -509,1730c-243,485 -539,901 -923,1294c-858,879 -1978,1409 -3200,1516c-152,13 -663,19 -790,8zm2045,-2572c1021,-44 1778,-104 1984,-157c174,-45 273,-153 310,-340c15,-72 37,-338 58,-699c18,-296 18,-2366 0,-2670c-19,-338 -42,-612 -57,-693c-33,-171 -115,-274 -265,-329c-175,-66 -1102,-138 -2225,-175c-506,-16 -2494,-16 -3000,0c-880,29 -1705,84 -2065,138c-264,40 -382,142 -425,366c-15,81 -38,355 -57,693c-18,304 -18,2374 0,2670c21,361 43,627 58,699c37,187 136,295 310,340c257,67 1440,147 2489,170c330,7 2662,-3 2885,-13z"/>
   <path fill="#48dbfb" id="svg_3" d="m4875,7190c-236,-27 -484,-99 -689,-199c-616,-302 -1039,-881 -1142,-1566c-22,-147 -22,-433 0,-580c71,-472 275,-869 613,-1195c338,-327 752,-520 1222,-571c138,-15 416,-7 551,16c423,71 801,261 1109,560c332,322 536,722 607,1190c22,147 22,433 0,580c-137,907 -833,1610 -1734,1751c-118,18 -427,26 -537,14z"/>
  </g>
 </g>
</svg>